<svg width="35" height="35" viewBox="0 0 35 35" fill="none" xmlns="http://www.w3.org/2000/svg">
<path d="M35.0005 17.5C35.0005 27.165 27.1655 35 17.5005 35C7.83551 35 0.000488281 27.165 0.000488281 17.5C0.000488281 7.83502 7.83551 0 17.5005 0C27.1655 0 35.0005 7.83502 35.0005 17.5ZM18.1277 12.9194C16.4256 13.6273 13.0237 15.0927 7.92209 17.3153C7.09367 17.6448 6.6597 17.967 6.6202 18.2822C6.55343 18.8147 7.22037 19.0245 8.12856 19.31C8.2521 19.3489 8.3801 19.3891 8.51132 19.4318C9.40484 19.7222 10.6068 20.062 11.2316 20.0755C11.7984 20.0878 12.431 19.8541 13.1294 19.3745C17.896 16.1569 20.3565 14.5306 20.511 14.4956C20.62 14.4708 20.771 14.4397 20.8734 14.5307C20.9757 14.6216 20.9656 14.7939 20.9548 14.8401C20.8887 15.1217 18.2708 17.5556 16.916 18.8152C16.4936 19.2078 16.194 19.4863 16.1328 19.5499C15.9956 19.6924 15.8558 19.8272 15.7214 19.9568C14.8913 20.757 14.2688 21.3571 15.7558 22.337C16.4705 22.808 17.0423 23.1974 17.6128 23.5859C18.2358 24.0102 18.8572 24.4334 19.6613 24.9604C19.8661 25.0947 20.0617 25.2341 20.2523 25.37C20.9773 25.8869 21.6287 26.3513 22.4335 26.2772C22.9011 26.2342 23.3842 25.7945 23.6295 24.4831C24.2092 21.3838 25.3488 14.6687 25.6121 11.9015C25.6352 11.6591 25.6062 11.3488 25.5829 11.2126C25.5596 11.0764 25.5109 10.8823 25.3338 10.7387C25.1241 10.5685 24.8005 10.5327 24.6557 10.5352C23.9975 10.5468 22.9876 10.8979 18.1277 12.9194Z" fill="white" fill-opacity="0.1"/>
</svg>
